{
    "data": [
        {
            "id": "13g699",
            "url": "https://wallhaven.cc/w/13g699",
            "short_url": "https://whvn.cc/13g699",
            "views": 1002,
            "favorites": 27,
            "source": "",
            "purity": "sketchy",
            "category": "anime",
            "dimension_x": 1322,
            "dimension_y": 1000,
            "resolution": "1322x1000",
            "ratio": "1.32",
            "file_size": 913846,
            "file_type": "image/jpeg",
            "created_at": "2019-09-02 15:28:58",
            "colors": [
                "#cc3333",
                "#ffffff",
                "#fdadc7",
                "#999999",
                "#424153"
            ],
            "path": "https://w.wallhaven.cc/full/13/wallhaven-13g699.jpg",
            "thumbs": {
                "large": "https://th.wallhaven.cc/lg/13/13g699.jpg",
                "original": "https://th.wallhaven.cc/orig/13/13g699.jpg",
                "small": "https://th.wallhaven.cc/small/13/13g699.jpg"
            }
        },
        {
            "id": "73ww9e",
            "url": "https://wallhaven.cc/w/73ww9e",
            "short_url": "https://whvn.cc/73ww9e",
            "views": 3827,
            "favorites": 84,
            "source": "https://www.pixiv.net/member_illust.php?mode=medium&illust_id=75024176",
            "purity": "sketchy",
            "category": "anime",
            "dimension_x": 863,
            "dimension_y": 1575,
            "resolution": "863x1575",
            "ratio": "0.55",
            "file_size": 1360233,
            "file_type": "image/jpeg",
            "created_at": "2019-06-04 23:27:46",
            "colors": [
                "#424153",
                "#999999",
                "#996633",
                "#e7d8b1",
                "#663300"
            ],
            "path": "https://w.wallhaven.cc/full/73/wallhaven-73ww9e.jpg",
            "thumbs": {
                "large": "https://th.wallhaven.cc/lg/73/73ww9e.jpg",
                "original": "https://th.wallhaven.cc/orig/73/73ww9e.jpg",
                "small": "https://th.wallhaven.cc/small/73/73ww9e.jpg"
            }
        },
        {
            "id": "lmljq2",
            "url": "https://wallhaven.cc/w/lmljq2",
            "short_url": "https://whvn.cc/lmljq2",
            "views": 1527,
            "favorites": 92,
            "source": "",
            "purity": "sketchy",
            "category": "anime",
            "dimension_x": 1300,
            "dimension_y": 1948,
            "resolution": "1300x1948",
            "ratio": "0.67",
            "file_size": 2629757,
            "file_type": "image/png",
            "created_at": "2020-08-09 07:45:56",
            "colors": [
                "#424153",
                "#999999",
                "#66cccc",
                "#000000",
                "#996633"
            ],
            "path": "https://w.wallhaven.cc/full/lm/wallhaven-lmljq2.png",
            "thumbs": {
                "large": "https://th.wallhaven.cc/lg/lm/lmljq2.jpg",
                "original": "https://th.wallhaven.cc/orig/lm/lmljq2.jpg",
                "small": "https://th.wallhaven.cc/small/lm/lmljq2.jpg"
            }
        },
        {
            "id": "g78y8q",
            "url": "https://wallhaven.cc/w/g78y8q",
            "short_url": "https://whvn.cc/g78y8q",
            "views": 1220,
            "favorites": 19,
            "source": "",
            "purity": "sfw",
            "category": "anime",
            "dimension_x": 2442,
            "dimension_y": 1400,
            "resolution": "2442x1400",
            "ratio": "1.74",
            "file_size": 3460386,
            "file_type": "image/jpeg",
            "created_at": "2021-01-29 05:54:08",
            "colors": [
                "#999999",
                "#424153",
                "#cccccc",
                "#abbcda",
                "#ffffff"
            ],
            "path": "https://w.wallhaven.cc/full/g7/wallhaven-g78y8q.jpg",
            "thumbs": {
                "large": "https://th.wallhaven.cc/lg/g7/g78y8q.jpg",
                "original": "https://th.wallhaven.cc/orig/g7/g78y8q.jpg",
                "small": "https://th.wallhaven.cc/small/g7/g78y8q.jpg"
            }
        },
        {
            "id": "5wpme9",
            "url": "https://wallhaven.cc/w/5wpme9",
            "short_url": "https://whvn.cc/5wpme9",
            "views": 2565,
            "favorites": 40,
            "source": "",
            "purity": "sfw",
            "category": "anime",
            "dimension_x": 1920,
            "dimension_y": 1080,
            "resolution": "1920x1080",
            "ratio": "1.78",
            "file_size": 3889029,
            "file_type": "image/png",
            "created_at": "2019-10-23 22:14:56",
            "colors": [
                "#424153",
                "#000000",
                "#999999",
                "#996633",
                "#e7d8b1"
            ],
            "path": "https://w.wallhaven.cc/full/5w/wallhaven-5wpme9.png",
            "thumbs": {
                "large": "https://th.wallhaven.cc/lg/5w/5wpme9.jpg",
                "original": "https://th.wallhaven.cc/orig/5w/5wpme9.jpg",
                "small": "https://th.wallhaven.cc/small/5w/5wpme9.jpg"
            }
        },
        {
            "id": "726pxe",
            "url": "https://wallhaven.cc/w/726pxe",
            "short_url": "https://whvn.cc/726pxe",
            "views": 3837,
            "favorites": 43,
            "source": "https://www.pixiv.net/en/artworks/86068276",
            "purity": "sfw",
            "category": "anime",
            "dimension_x": 5366,
            "dimension_y": 2813,
            "resolution": "5366x2813",
            "ratio": "1.91",
            "file_size": 8226572,
            "file_type": "image/jpeg",
            "created_at": "2020-12-04 00:32:14",
            "colors": [
                "#e7d8b1",
                "#999999",
                "#ffffff",
                "#cc6633",
                "#996633"
            ],
            "path": "https://w.wallhaven.cc/full/72/wallhaven-726pxe.jpg",
            "thumbs": {
                "large": "https://th.wallhaven.cc/lg/72/726pxe.jpg",
                "original": "https://th.wallhaven.cc/orig/72/726pxe.jpg",
                "small": "https://th.wallhaven.cc/small/72/726pxe.jpg"
            }
        },
        {
            "id": "yxqjrk",
            "url": "https://wallhaven.cc/w/yxqjrk",
            "short_url": "https://whvn.cc/yxqjrk",
            "views": 6,
            "favorites": 5,
            "source": "",
            "purity": "sketchy",
            "category": "anime",
            "dimension_x": 7000,
            "dimension_y": 4507,
            "resolution": "7000x4507",
            "ratio": "1.55",
            "file_size": 15117167,
            "file_type": "image/jpeg",
            "created_at": "2023-02-01 14:18:46",
            "colors": [
                "#999999",
                "#cccccc",
                "#424153",
                "#000000",
                "#996633"
            ],
            "path": "https://w.wallhaven.cc/full/yx/wallhaven-yxqjrk.jpg",
            "thumbs": {
                "large": "https://th.wallhaven.cc/lg/yx/yxqjrk.jpg",
                "original": "https://th.wallhaven.cc/orig/yx/yxqjrk.jpg",
                "small": "https://th.wallhaven.cc/small/yx/yxqjrk.jpg"
            }
        },
        {
            "id": "2e6go6",
            "url": "https://wallhaven.cc/w/2e6go6",
            "short_url": "https://whvn.cc/2e6go6",
            "views": 1754,
            "favorites": 57,
            "source": "",
            "purity": "sketchy",
            "category": "anime",
            "dimension_x": 1440,
            "dimension_y": 900,
            "resolution": "1440x900",
            "ratio": "1.6",
            "file_size": 1689513,
            "file_type": "image/png",
            "created_at": "2019-10-10 03:59:28",
            "colors": [
                "#e7d8b1",
                "#999999",
                "#ffffff",
                "#424153",
                "#abbcda"
            ],
            "path": "https://w.wallhaven.cc/full/2e/wallhaven-2e6go6.png",
            "thumbs": {
                "large": "https://th.wallhaven.cc/lg/2e/2e6go6.jpg",
                "original": "https://th.wallhaven.cc/orig/2e/2e6go6.jpg",
                "small": "https://th.wallhaven.cc/small/2e/2e6go6.jpg"
            }
        },
        {
            "id": "v9wyy3",
            "url": "https://wallhaven.cc/w/v9wyy3",
            "short_url": "https://whvn.cc/v9wyy3",
            "views": 704,
            "favorites": 41,
            "source": "",
            "purity": "sketchy",
            "category": "anime",
            "dimension_x": 2400,
            "dimension_y": 1350,
            "resolution": "2400x1350",
            "ratio": "1.78",
            "file_size": 4438557,
            "file_type": "image/png",
            "created_at": "2022-08-15 02:12:28",
            "colors": [
                "#424153",
                "#000000",
                "#fdadc7",
                "#999999",
                "#cc0000"
            ],
            "path": "https://w.wallhaven.cc/full/v9/wallhaven-v9wyy3.png",
            "thumbs": {
                "large": "https://th.wallhaven.cc/lg/v9/v9wyy3.jpg",
                "original": "https://th.wallhaven.cc/orig/v9/v9wyy3.jpg",
                "small": "https://th.wallhaven.cc/small/v9/v9wyy3.jpg"
            }
        },
        {
            "id": "pkqq9j",
            "url": "https://wallhaven.cc/w/pkqq9j",
            "short_url": "https://whvn.cc/pkqq9j",
            "views": 1743,
            "favorites": 173,
            "source": "",
            "purity": "sketchy",
            "category": "anime",
            "dimension_x": 6300,
            "dimension_y": 4725,
            "resolution": "6300x4725",
            "ratio": "1.33",
            "file_size": 10292235,
            "file_type": "image/jpeg",
            "created_at": "2022-08-27 06:05:44",
            "colors": [
                "#999999",
                "#e7d8b1",
                "#66cccc",
                "#abbcda",
                "#cccccc"
            ],
            "path": "https://w.wallhaven.cc/full/pk/wallhaven-pkqq9j.jpg",
            "thumbs": {
                "large": "https://th.wallhaven.cc/lg/pk/pkqq9j.jpg",
                "original": "https://th.wallhaven.cc/orig/pk/pkqq9j.jpg",
                "small": "https://th.wallhaven.cc/small/pk/pkqq9j.jpg"
            }
        },
        {
            "id": "838od2",
            "url": "https://wallhaven.cc/w/838od2",
            "short_url": "https://whvn.cc/838od2",
            "views": 3018,
            "favorites": 46,
            "source": "",
            "purity": "sfw",
            "category": "anime",
            "dimension_x": 4961,
            "dimension_y": 3508,
            "resolution": "4961x3508",
            "ratio": "1.41",
            "file_size": 8905058,
            "file_type": "image/jpeg",
            "created_at": "2019-10-14 12:52:53",
            "colors": [
                "#424153",
                "#ffcc33",
                "#000000",
                "#cccccc",
                "#999999"
            ],
            "path": "https://w.wallhaven.cc/full/83/wallhaven-838od2.jpg",
            "thumbs": {
                "large": "https://th.wallhaven.cc/lg/83/838od2.jpg",
                "original": "https://th.wallhaven.cc/orig/83/838od2.jpg",
                "small": "https://th.wallhaven.cc/small/83/838od2.jpg"
            }
        },
        {
            "id": "p8m3dm",
            "url": "https://wallhaven.cc/w/p8m3dm",
            "short_url": "https://whvn.cc/p8m3dm",
            "views": 2225,
            "favorites": 32,
            "source": "",
            "purity": "sfw",
            "category": "anime",
            "dimension_x": 3500,
            "dimension_y": 2475,
            "resolution": "3500x2475",
            "ratio": "1.41",
            "file_size": 1853508,
            "file_type": "image/jpeg",
            "created_at": "2019-10-10 17:26:25",
            "colors": [
                "#424153",
                "#999999",
                "#ffffff",
                "#cccccc",
                "#e7d8b1"
            ],
            "path": "https://w.wallhaven.cc/full/p8/wallhaven-p8m3dm.jpg",
            "thumbs": {
                "large": "https://th.wallhaven.cc/lg/p8/p8m3dm.jpg",
                "original": "https://th.wallhaven.cc/orig/p8/p8m3dm.jpg",
                "small": "https://th.wallhaven.cc/small/p8/p8m3dm.jpg"
            }
        },
        {
            "id": "r2edd7",
            "url": "https://wallhaven.cc/w/r2edd7",
            "short_url": "https://whvn.cc/r2edd7",
            "views": 1830,
            "favorites": 31,
            "source": "",
            "purity": "sfw",
            "category": "anime",
            "dimension_x": 1555,
            "dimension_y": 1100,
            "resolution": "1555x1100",
            "ratio": "1.41",
            "file_size": 1657141,
            "file_type": "image/jpeg",
            "created_at": "2019-10-14 04:26:01",
            "colors": [
                "#999999",
                "#e7d8b1",
                "#424153",
                "#996633",
                "#cccccc"
            ],
            "path": "https://w.wallhaven.cc/full/r2/wallhaven-r2edd7.jpg",
            "thumbs": {
                "large": "https://th.wallhaven.cc/lg/r2/r2edd7.jpg",
                "original": "https://th.wallhaven.cc/orig/r2/r2edd7.jpg",
                "small": "https://th.wallhaven.cc/small/r2/r2edd7.jpg"
            }
        },
        {
            "id": "p26o83",
            "url": "https://wallhaven.cc/w/p26o83",
            "short_url": "https://whvn.cc/p26o83",
            "views": 52120,
            "favorites": 435,
            "source": "",
            "purity": "sfw",
            "category": "anime",
            "dimension_x": 4737,
            "dimension_y": 2665,
            "resolution": "4737x2665",
            "ratio": "1.78",
            "file_size": 8193944,
            "file_type": "image/jpeg",
            "created_at": "2018-02-09 07:25:24",
            "colors": [
                "#424153",
                "#999999",
                "#ffffff",
                "#000000",
                "#cccccc"
            ],
            "path": "https://w.wallhaven.cc/full/p2/wallhaven-p26o83.jpg",
            "thumbs": {
                "large": "https://th.wallhaven.cc/lg/p2/p26o83.jpg",
                "original": "https://th.wallhaven.cc/orig/p2/p26o83.jpg",
                "small": "https://th.wallhaven.cc/small/p2/p26o83.jpg"
            }
        },
        {
            "id": "rdkyz1",
            "url": "https://wallhaven.cc/w/rdkyz1",
            "short_url": "https://whvn.cc/rdkyz1",
            "views": 879,
            "favorites": 53,
            "source": "https://twitter.com/m_okuma0831/status/1558743821843714048",
            "purity": "sketchy",
            "category": "anime",
            "dimension_x": 4000,
            "dimension_y": 2250,
            "resolution": "4000x2250",
            "ratio": "1.78",
            "file_size": 4846598,
            "file_type": "image/jpeg",
            "created_at": "2022-08-14 10:26:01",
            "colors": [
                "#e7d8b1",
                "#999999",
                "#ffffff",
                "#cccccc",
                "#424153"
            ],
            "path": "https://w.wallhaven.cc/full/rd/wallhaven-rdkyz1.jpg",
            "thumbs": {
                "large": "https://th.wallhaven.cc/lg/rd/rdkyz1.jpg",
                "original": "https://th.wallhaven.cc/orig/rd/rdkyz1.jpg",
                "small": "https://th.wallhaven.cc/small/rd/rdkyz1.jpg"
            }
        },
        {
            "id": "j5z92q",
            "url": "https://wallhaven.cc/w/j5z92q",
            "short_url": "https://whvn.cc/j5z92q",
            "views": 1123,
            "favorites": 42,
            "source": "",
            "purity": "sketchy",
            "category": "anime",
            "dimension_x": 2418,
            "dimension_y": 1715,
            "resolution": "2418x1715",
            "ratio": "1.41",
            "file_size": 4449140,
            "file_type": "image/png",
            "created_at": "2020-05-25 17:35:38",
            "colors": [
                "#ffffff",
                "#cccccc",
                "#999999",
                "#abbcda",
                "#e7d8b1"
            ],
            "path": "https://w.wallhaven.cc/full/j5/wallhaven-j5z92q.png",
            "thumbs": {
                "large": "https://th.wallhaven.cc/lg/j5/j5z92q.jpg",
                "original": "https://th.wallhaven.cc/orig/j5/j5z92q.jpg",
                "small": "https://th.wallhaven.cc/small/j5/j5z92q.jpg"
            }
        },
        {
            "id": "p86j8e",
            "url": "https://wallhaven.cc/w/p86j8e",
            "short_url": "https://whvn.cc/p86j8e",
            "views": 36807,
            "favorites": 864,
            "source": "https://www.pixiv.net/en/artworks/83493206",
            "purity": "sfw",
            "category": "anime",
            "dimension_x": 2000,
            "dimension_y": 2828,
            "resolution": "2000x2828",
            "ratio": "0.71",
            "file_size": 2178823,
            "file_type": "image/jpeg",
            "created_at": "2020-08-06 17:40:07",
            "colors": [
                "#cccccc",
                "#ffffff",
                "#999999",
                "#424153",
                "#996633"
            ],
            "path": "https://w.wallhaven.cc/full/p8/wallhaven-p86j8e.jpg",
            "thumbs": {
                "large": "https://th.wallhaven.cc/lg/p8/p86j8e.jpg",
                "original": "https://th.wallhaven.cc/orig/p8/p86j8e.jpg",
                "small": "https://th.wallhaven.cc/small/p8/p86j8e.jpg"
            }
        },
        {
            "id": "r2ed27",
            "url": "https://wallhaven.cc/w/r2ed27",
            "short_url": "https://whvn.cc/r2ed27",
            "views": 3082,
            "favorites": 51,
            "source": "",
            "purity": "sfw",
            "category": "anime",
            "dimension_x": 3000,
            "dimension_y": 1687,
            "resolution": "3000x1687",
            "ratio": "1.78",
            "file_size": 5106338,
            "file_type": "image/png",
            "created_at": "2019-10-14 04:15:41",
            "colors": [
                "#424153",
                "#ffffff",
                "#abbcda",
                "#999999",
                "#cccccc"
            ],
            "path": "https://w.wallhaven.cc/full/r2/wallhaven-r2ed27.png",
            "thumbs": {
                "large": "https://th.wallhaven.cc/lg/r2/r2ed27.jpg",
                "original": "https://th.wallhaven.cc/orig/r2/r2ed27.jpg",
                "small": "https://th.wallhaven.cc/small/r2/r2ed27.jpg"
            }
        },
        {
            "id": "lmg36q",
            "url": "https://wallhaven.cc/w/lmg36q",
            "short_url": "https://whvn.cc/lmg36q",
            "views": 1858,
            "favorites": 26,
            "source": "",
            "purity": "sfw",
            "category": "anime",
            "dimension_x": 2111,
            "dimension_y": 1467,
            "resolution": "2111x1467",
            "ratio": "1.44",
            "file_size": 3279397,
            "file_type": "image/jpeg",
            "created_at": "2019-10-15 04:35:55",
            "colors": [
                "#e7d8b1",
                "#999999",
                "#ffffff",
                "#cccccc",
                "#cccc33"
            ],
            "path": "https://w.wallhaven.cc/full/lm/wallhaven-lmg36q.jpg",
            "thumbs": {
                "large": "https://th.wallhaven.cc/lg/lm/lmg36q.jpg",
                "original": "https://th.wallhaven.cc/orig/lm/lmg36q.jpg",
                "small": "https://th.wallhaven.cc/small/lm/lmg36q.jpg"
            }
        },
        {
            "id": "6oww8x",
            "url": "https://wallhaven.cc/w/6oww8x",
            "short_url": "https://whvn.cc/6oww8x",
            "views": 2329,
            "favorites": 100,
            "source": "",
            "purity": "sketchy",
            "category": "anime",
            "dimension_x": 2560,
            "dimension_y": 1440,
            "resolution": "2560x1440",
            "ratio": "1.78",
            "file_size": 3908457,
            "file_type": "image/png",
            "created_at": "2021-09-04 07:18:28",
            "colors": [
                "#e7d8b1",
                "#fdadc7",
                "#0099cc",
                "#66cccc",
                "#0066cc"
            ],
            "path": "https://w.wallhaven.cc/full/6o/wallhaven-6oww8x.png",
            "thumbs": {
                "large": "https://th.wallhaven.cc/lg/6o/6oww8x.jpg",
                "original": "https://th.wallhaven.cc/orig/6o/6oww8x.jpg",
                "small": "https://th.wallhaven.cc/small/6o/6oww8x.jpg"
            }
        },
        {
            "id": "73mj9v",
            "url": "https://wallhaven.cc/w/73mj9v",
            "short_url": "https://whvn.cc/73mj9v",
            "views": 1972,
            "favorites": 78,
            "source": "",
            "purity": "sketchy",
            "category": "anime",
            "dimension_x": 1920,
            "dimension_y": 1080,
            "resolution": "1920x1080",
            "ratio": "1.78",
            "file_size": 2828283,
            "file_type": "image/png",
            "created_at": "2019-11-16 11:16:11",
            "colors": [
                "#424153",
                "#000000",
                "#660000",
                "#999999",
                "#996633"
            ],
            "path": "https://w.wallhaven.cc/full/73/wallhaven-73mj9v.png",
            "thumbs": {
                "large": "https://th.wallhaven.cc/lg/73/73mj9v.jpg",
                "original": "https://th.wallhaven.cc/orig/73/73mj9v.jpg",
                "small": "https://th.wallhaven.cc/small/73/73mj9v.jpg"
            }
        },
        {
            "id": "96jj81",
            "url": "https://wallhaven.cc/w/96jj81",
            "short_url": "https://whvn.cc/96jj81",
            "views": 2107,
            "favorites": 32,
            "source": "",
            "purity": "sfw",
            "category": "anime",
            "dimension_x": 1821,
            "dimension_y": 1024,
            "resolution": "1821x1024",
            "ratio": "1.78",
            "file_size": 3165040,
            "file_type": "image/png",
            "created_at": "2020-09-21 05:26:43",
            "colors": [
                "#999999",
                "#424153",
                "#996633",
                "#cccccc",
                "#e7d8b1"
            ],
            "path": "https://w.wallhaven.cc/full/96/wallhaven-96jj81.png",
            "thumbs": {
                "large": "https://th.wallhaven.cc/lg/96/96jj81.jpg",
                "original": "https://th.wallhaven.cc/orig/96/96jj81.jpg",
                "small": "https://th.wallhaven.cc/small/96/96jj81.jpg"
            }
        },
        {
            "id": "g7vr93",
            "url": "https://wallhaven.cc/w/g7vr93",
            "short_url": "https://whvn.cc/g7vr93",
            "views": 1217,
            "favorites": 101,
            "source": "https://twitter.com/imlllsn",
            "purity": "sketchy",
            "category": "anime",
            "dimension_x": 2560,
            "dimension_y": 1440,
            "resolution": "2560x1440",
            "ratio": "1.78",
            "file_size": 1218815,
            "file_type": "image/png",
            "created_at": "2022-01-27 11:39:47",
            "colors": [
                "#ffffff",
                "#cccccc",
                "#999999",
                "#424153",
                "#e7d8b1"
            ],
            "path": "https://w.wallhaven.cc/full/g7/wallhaven-g7vr93.png",
            "thumbs": {
                "large": "https://th.wallhaven.cc/lg/g7/g7vr93.jpg",
                "original": "https://th.wallhaven.cc/orig/g7/g7vr93.jpg",
                "small": "https://th.wallhaven.cc/small/g7/g7vr93.jpg"
            }
        },
        {
            "id": "13okvw",
            "url": "https://wallhaven.cc/w/13okvw",
            "short_url": "https://whvn.cc/13okvw",
            "views": 5856,
            "favorites": 67,
            "source": "",
            "purity": "sfw",
            "category": "anime",
            "dimension_x": 1904,
            "dimension_y": 1200,
            "resolution": "1904x1200",
            "ratio": "1.59",
            "file_size": 4679361,
            "file_type": "image/png",
            "created_at": "2019-10-15 04:25:07",
            "colors": [
                "#ffffff",
                "#cccccc",
                "#999999",
                "#424153",
                "#abbcda"
            ],
            "path": "https://w.wallhaven.cc/full/13/wallhaven-13okvw.png",
            "thumbs": {
                "large": "https://th.wallhaven.cc/lg/13/13okvw.jpg",
                "original": "https://th.wallhaven.cc/orig/13/13okvw.jpg",
                "small": "https://th.wallhaven.cc/small/13/13okvw.jpg"
            }
        }
    ],
    "meta": {
        "current_page": 1,
        "last_page": 338,
        "per_page": 24,
        "total": 8109,
        "query": "lane",
        "seed": "wJ7I7R"
    }
}